…
**5.4**
Compare os dados de penguins (*palmerpenguins::penguins_raw* e *palmerpenguins::penguins*). Monte uma série de funções dos pacotes *tidyr* e `dplyr` para limpar os dados e fazer com que o primeiro dado seja igual ao segundo.

 Solução:

```r
library(tidyverse)
library(palmerpenguins)

penguins_raw
#> # A tibble: 344 × 17
#>    studyName `Sample Number` Species    Region Island Stage 
#>    <chr>               <dbl> <chr>      <chr>  <chr>  <chr> 
#>  1 PAL0708                 1 Adelie Pe… Anvers Torge… Adult…
#>  2 PAL0708                 2 Adelie Pe… Anvers Torge… Adult…
#>  3 PAL0708                 3 Adelie Pe… Anvers Torge… Adult…
#>  4 PAL0708                 4 Adelie Pe… Anvers Torge… Adult…
#>  5 PAL0708                 5 Adelie Pe… Anvers Torge… Adult…
#>  6 PAL0708                 6 Adelie Pe… Anvers Torge… Adult…
#>  7 PAL0708                 7 Adelie Pe… Anvers Torge… Adult…
#>  8 PAL0708                 8 Adelie Pe… Anvers Torge… Adult…
#>  9 PAL0708                 9 Adelie Pe… Anvers Torge… Adult…
#> 10 PAL0708                10 Adelie Pe… Anvers Torge… Adult…
#> # … with 334 more rows, and 11 more variables:
#> #   Individual ID <chr>, Clutch Completion <chr>,
#> #   Date Egg <date>, Culmen Length (mm) <dbl>,
#> #   Culmen Depth (mm) <dbl>, Flipper Length (mm) <dbl>,
#> #   Body Mass (g) <dbl>, Sex <chr>,
#> #   Delta 15 N (o/oo) <dbl>, Delta 13 C (o/oo) <dbl>,
#> #   Comments <chr>
penguins
#> # A tibble: 344 × 8
#>    species island    bill_length_mm bill_depth_mm
#>    <fct>   <fct>              <dbl>         <dbl>
#>  1 Adelie  Torgersen           39.1          18.7
#>  2 Adelie  Torgersen           39.5          17.4
#>  3 Adelie  Torgersen           40.3          18  
#>  4 Adelie  Torgersen           NA            NA  
#>  5 Adelie  Torgersen           36.7          19.3
#>  6 Adelie  Torgersen           39.3          20.6
#>  7 Adelie  Torgersen           38.9          17.8
#>  8 Adelie  Torgersen           39.2          19.6
#>  9 Adelie  Torgersen           34.1          18.1
#> 10 Adelie  Torgersen           42            20.2
#> # … with 334 more rows, and 4 more variables:
#> #   flipper_length_mm <int>, body_mass_g <int>, sex <fct>,
#> #   year <int>

penguins_raw %>% 
    dplyr::select(Species, Island, `Culmen Length (mm)`:Sex, `Date Egg`) %>% 
    dplyr::rename(species = Species,
                  island = Island,
                  bill_length_mm = `Culmen Length (mm)`,
                  bill_depth_mm = `Culmen Depth (mm)`,
                  flipper_length_mm = `Flipper Length (mm)`,
                  body_mass_g = `Body Mass (g)`,
                  sex = Sex,
                  year = `Date Egg`) %>% 
    tidyr::separate(species, c("species", NA, NA, NA, NA)) %>% 
    dplyr::mutate(sex = stringr::str_to_lower(sex),
                  year = lubridate::year(year))
#> # A tibble: 344 × 8
#>    species island    bill_length_mm bill_depth_mm
#>    <chr>   <chr>              <dbl>         <dbl>
#>  1 Adelie  Torgersen           39.1          18.7
#>  2 Adelie  Torgersen           39.5          17.4
#>  3 Adelie  Torgersen           40.3          18  
#>  4 Adelie  Torgersen           NA            NA  
#>  5 Adelie  Torgersen           36.7          19.3
#>  6 Adelie  Torgersen           39.3          20.6
#>  7 Adelie  Torgersen           38.9          17.8
#>  8 Adelie  Torgersen           39.2          19.6
#>  9 Adelie  Torgersen           34.1          18.1
#> 10 Adelie  Torgersen           42            20.2
#> # … with 334 more rows, and 4 more variables:
#> #   flipper_length_mm <dbl>, body_mass_g <dbl>, sex <chr>,
#> #   year <dbl>
```
…
